{ "frames": {
   "atlas.aseprite": {
    "frame": { "x": 0, "y": 0, "w": 2680, "h": 1560 },
    "rotated": false,
    "trimmed": false,
    "spriteSourceSize": { "x": 0, "y": 0, "w": 2680, "h": 1560 },
    "sourceSize": { "w": 2680, "h": 1560 },
    "duration": 100
   }
 },
 "meta": {
  "app": "http://www.aseprite.org/",
  "version": "1.3-rc2-x64",
  "image": "atlas.png",
  "format": "RGBA8888",
  "size": { "w": 2680, "h": 1560 },
  "scale": "1",
  "frameTags": [
  ],
  "layers": [
   { "name": "Flattened", "opacity": 255, "blendMode": "normal" },
   { "name": "Layer 1", "opacity": 255, "blendMode": "normal" }
  ],
  "slices": [
   { "name": "BigBunny", "color": "#0000ffff", "keys": [{ "frame": 0, "bounds": {"x": 768, "y": 320, "w": 320, "h": 320 } }] },
   { "name": "BigExclaim", "color": "#0000ffff", "keys": [{ "frame": 0, "bounds": {"x": 1088, "y": 448, "w": 128, "h": 192 } }] },
   { "name": "BigTreeShadow", "color": "#0000ffff", "keys": [{ "frame": 0, "bounds": {"x": 768, "y": 768, "w": 192, "h": 128 } }] },
   { "name": "Hole", "color": "#0000ffff", "keys": [{ "frame": 0, "bounds": {"x": 704, "y": 704, "w": 64, "h": 64 } }] },
   { "name": "Shadow", "color": "#0000ffff", "keys": [{ "frame": 0, "bounds": {"x": 768, "y": 704, "w": 64, "h": 64 } }] },
   { "name": "Exclaim", "color": "#0000ffff", "keys": [{ "frame": 0, "bounds": {"x": 704, "y": 768, "w": 64, "h": 64 } }] },
   { "name": "Question", "color": "#0000ffff", "keys": [{ "frame": 0, "bounds": {"x": 704, "y": 832, "w": 64, "h": 64 } }] },
   { "name": "Smile", "color": "#0000ffff", "keys": [{ "frame": 0, "bounds": {"x": 704, "y": 896, "w": 64, "h": 64 } }] },
   { "name": "UFenceShadow", "color": "#0000ffff", "keys": [{ "frame": 0, "bounds": {"x": 640, "y": 832, "w": 65, "h": 64 } }] },
   { "name": "UFenceUpShadow", "color": "#0000ffff", "keys": [{ "frame": 0, "bounds": {"x": 640, "y": 768, "w": 64, "h": 64 } }] },
   { "name": "UFenceDownShadow", "color": "#0000ffff", "keys": [{ "frame": 0, "bounds": {"x": 640, "y": 896, "w": 64, "h": 64 } }] },
   { "name": "UFenceDown", "color": "#0000ffff", "keys": [{ "frame": 0, "bounds": {"x": 576, "y": 896, "w": 64, "h": 64 } }] },
   { "name": "UFence", "color": "#0000ffff", "keys": [{ "frame": 0, "bounds": {"x": 576, "y": 832, "w": 64, "h": 64 } }] },
   { "name": "UFenceUp", "color": "#0000ffff", "keys": [{ "frame": 0, "bounds": {"x": 576, "y": 768, "w": 65, "h": 64 } }] },
   { "name": "FenceShadowLeft", "color": "#0000ffff", "keys": [{ "frame": 0, "bounds": {"x": 384, "y": 768, "w": 64, "h": 64 } }] },
   { "name": "FenceShadow", "color": "#0000ffff", "keys": [{ "frame": 0, "bounds": {"x": 448, "y": 768, "w": 64, "h": 64 } }] },
   { "name": "FenceShadowRight", "color": "#0000ffff", "keys": [{ "frame": 0, "bounds": {"x": 512, "y": 768, "w": 64, "h": 64 } }] },
   { "name": "Square", "color": "#0000ffff", "keys": [{ "frame": 0, "bounds": {"x": 448, "y": 832, "w": 128, "h": 128 } }] },
   { "name": "BlockUp", "color": "#0000ffff", "keys": [{ "frame": 0, "bounds": {"x": 320, "y": 832, "w": 64, "h": 192 } }] },
   { "name": "BlockDown", "color": "#0000ffff", "keys": [{ "frame": 0, "bounds": {"x": 384, "y": 832, "w": 64, "h": 192 } }] },
   { "name": "BigTree", "color": "#0000ffff", "keys": [{ "frame": 0, "bounds": {"x": 0, "y": 832, "w": 320, "h": 320 } }] },
   { "name": "Slice 22", "color": "#0000ffff", "keys": [{ "frame": 0, "bounds": {"x": 576, "y": 704, "w": 32, "h": 64 } }] },
   { "name": "Slice 23", "color": "#0000ffff", "keys": [{ "frame": 0, "bounds": {"x": 608, "y": 704, "w": 32, "h": 64 } }] },
   { "name": "Slice 24", "color": "#0000ffff", "keys": [{ "frame": 0, "bounds": {"x": 640, "y": 704, "w": 32, "h": 64 } }] },
   { "name": "Slice 25", "color": "#0000ffff", "keys": [{ "frame": 0, "bounds": {"x": 672, "y": 704, "w": 32, "h": 64 } }] },
   { "name": "SmallBall", "color": "#0000ffff", "keys": [{ "frame": 0, "bounds": {"x": 384, "y": 640, "w": 32, "h": 32 } }] },
   { "name": "SmallBone", "color": "#0000ffff", "keys": [{ "frame": 0, "bounds": {"x": 416, "y": 640, "w": 32, "h": 32 } }] },
   { "name": "SmallRock", "color": "#0000ffff", "keys": [{ "frame": 0, "bounds": {"x": 385, "y": 672, "w": 32, "h": 32 } }] },
   { "name": "Rock", "color": "#0000ffff", "keys": [{ "frame": 0, "bounds": {"x": 320, "y": 640, "w": 64, "h": 64 } }] },
   { "name": "Bone", "color": "#0000ffff", "keys": [{ "frame": 0, "bounds": {"x": 256, "y": 640, "w": 64, "h": 64 } }] },
   { "name": "Ball", "color": "#0000ffff", "keys": [{ "frame": 0, "bounds": {"x": 192, "y": 640, "w": 64, "h": 64 } }] }
  ]
 }
}
